<?xml version="1.0" encoding="utf-8"?>
<!-- Generator: Adobe Illustrator 24.0.1, SVG Export Plug-In . SVG Version: 6.00 Build 0)  -->
<svg version="1.1" xmlns="http://www.w3.org/2000/svg" xmlns:xlink="http://www.w3.org/1999/xlink" x="0px" y="0px" width="50px"
	 height="50px" viewBox="0 0 50 50" style="enable-background:new 0 0 50 50;" xml:space="preserve">
<style type="text/css">
	.st0{display:none;}
	.st1{display:inline;}
	.st2{fill:none;stroke:#0C2947;stroke-width:2;stroke-linejoin:round;stroke-miterlimit:10;}
	.st3{fill:none;stroke:#0C2947;stroke-width:0.75;stroke-linejoin:round;stroke-miterlimit:10;}
	.st4{fill:#0C2947;stroke:#0C2947;stroke-width:0.5;stroke-miterlimit:10;}
	.st5{fill:#0C2947;stroke:#0C2947;stroke-miterlimit:10;}
	.st6{display:inline;fill:#0C2947;}
	.st7{font-family:'Montserrat-Bold';}
	.st8{font-size:8.4161px;}
	.st9{fill:#414042;stroke:#0C2947;stroke-width:0.75;stroke-miterlimit:10;}
</style>
<g id="area" class="st0">
	<g class="st1">
		<polyline class="st2" points="18.2,15 18.2,10.3 13.8,10.3 13.8,19.6 		"/>
		<polyline class="st2" points="37.8,27.4 37.8,39 11.5,39 11.5,27.4 		"/>
		<polygon class="st2" points="25,8 8.5,25 11.5,28.1 25,14.2 38.5,28.1 41.5,25 		"/>
		<rect x="16.8" y="27.4" class="st2" width="6" height="11.6"/>
		<rect x="25.8" y="27.4" class="st2" width="7.5" height="6.2"/>
		<line class="st2" x1="7" y1="39" x2="43" y2="39"/>
	</g>
</g>
<g id="size_of_the_plot" class="st0">
	<g class="st1">
		<line class="st2" x1="12.2" y1="12.8" x2="40.2" y2="12.8"/>
		<path class="st2" d="M8,33.8c0-2.1,1.7-4,4.2-4V8C9.6,8,8,10,8,12V33.8z"/>
		<path class="st2" d="M39.7,12.8H43v24.9H12.2c-2.3,0-4.2-1.8-4.2-4"/>
		<polyline class="st2" points="18,36.2 18,24.9 13.8,24.9 		"/>
		<polyline class="st2" points="13.8,20.9 18,20.9 18,14.4 		"/>
		<polyline class="st2" points="22.2,14.4 22.2,28.1 41.3,28.1 		"/>
		<polyline class="st2" points="22.2,36.2 22.2,32.1 41.3,32.1 		"/>
	</g>
</g>
<g id="circule">
	<circle class="st3" cx="25" cy="25" r="24.5"/>
</g>
<g id="number_of_bedrooms" class="st0">
	<g class="st1">
		<polygon class="st2" points="9.3,26.1 9.3,38.4 11.5,38.4 12.9,36.2 37.4,36.2 38.8,38.4 41,38.4 41,26.1 		"/>
		<polyline class="st2" points="39.6,20.4 39.6,10.3 25.2,10.3 		"/>
		<polyline class="st2" points="10.8,20.4 10.8,10.3 25.2,10.3 		"/>
		<polyline class="st2" points="16.5,16.8 16.5,16.8 13.7,16.8 11.5,26.1 		"/>
		<polyline class="st2" points="38.8,26.1 36.7,16.8 33.8,16.8 		"/>
		<path class="st2" d="M23.2,19h-4.6c-1.1,0-2-0.9-2-2v-0.3c0-1.1,0.9-2,2-2h4.6c1.1,0,2,0.9,2,2V17C25.2,18.1,24.3,19,23.2,19z"/>
		<path class="st2" d="M31.8,19h-4.6c-1.1,0-2-0.9-2-2v-0.3c0-1.1,0.9-2,2-2h4.6c1.1,0,2,0.9,2,2V17C33.8,18.1,32.9,19,31.8,19z"/>
	</g>
</g>
<g id="distance_to_the_sea">
	<path class="st4" d="M41.4,38l-7.4-7.4c-0.4-0.4-0.8-0.5-1.3-0.5h-7.3l2.2-11.9l2.4,0.4c0,0,0,0,0.1,0l5.9,1.1l0,0l4.9,0.9
		c0,0,0.1,0,0.1,0c0.1,0,0.3,0,0.4-0.1c0.1-0.1,0.2-0.3,0.2-0.4c-0.5-7.3-5.8-13.3-12.9-14.7c0,0,0,0,0,0l0,0c0,0,0,0,0,0
		c0,0-0.1,0-0.1,0c0,0,0,0,0,0c0,0,0,0,0,0c-0.1,0-0.1,0-0.2,0C21.1,4,14,7.8,11,14.4c-0.1,0.2-0.1,0.3,0,0.5
		c0.1,0.1,0.2,0.3,0.4,0.3l4.7,0.9c0,0,0,0,0,0l6.3,1.2c0,0,0,0,0.1,0l2.1,0.4L22.3,30h-6.5l-3.2-3.2l0.3-0.3c0.6-0.6,0.6-1.5,0-2.1
		L10.5,22c-0.3-0.3-0.7-0.4-1.1-0.4c-0.4,0-0.8,0.2-1.1,0.4L8,22.3l0,0c-0.4-0.4-0.8-0.5-1.3-0.5s-1,0.2-1.3,0.5
		c-0.7,0.7-0.7,1.9,0,2.6l8.3,8.3c0.2,0.2,0.4,0.3,0.6,0.4L10.8,40c-0.1,0.3-0.1,0.6,0.2,0.7l1.7,0.9c0.1,0,0.2,0.1,0.3,0.1
		c0.1,0,0.1,0,0.2,0c0.1,0,0.3-0.1,0.3-0.3l4.2-7.7h4l-1.2,6.5c0,0.1,0,0.3,0.1,0.4c0.1,0.1,0.2,0.2,0.4,0.2l1.8,0.3
		c0,0,0.1,0,0.1,0c0.3,0,0.5-0.2,0.5-0.4l1.3-7h7.2l6.9,6.9c0.4,0.4,0.8,0.5,1.3,0.5c0.5,0,1-0.2,1.3-0.5c0.4-0.4,0.5-0.8,0.5-1.3
		C41.9,38.8,41.7,38.4,41.4,38z M40.6,39.9c-0.1,0.1-0.3,0.2-0.5,0.2c-0.2,0-0.4-0.1-0.5-0.2c0,0,0,0,0,0l-7-7
		c-0.1-0.1-0.2-0.2-0.4-0.2h-7.3h-0.6h-0.6h-0.8h-0.6h-0.6h-3.6h-0.6H17h-0.9h-0.6H15c-0.1,0-0.1,0-0.2,0c-0.1,0-0.3-0.1-0.4-0.2
		l-8.3-8.3c-0.3-0.3-0.3-0.8,0-1.1c0.1-0.1,0.3-0.2,0.5-0.2c0.2,0,0.4,0.1,0.5,0.2l7.9,7.9c0.1,0.1,0.2,0.2,0.4,0.2h0.1h0.9h5.6h0.6
		h0.6H24h0.6h0.6h7.5c0.2,0,0.4,0.1,0.5,0.2l7.4,7.4c0.1,0.1,0.2,0.3,0.2,0.5C40.8,39.5,40.7,39.7,40.6,39.9z M21.6,39.9l1.1-6.1
		h0.8L22.4,40L21.6,39.9z M12,40.1l3.5-6.3h0.9l-3.7,6.7L12,40.1z M9.1,22.7c0.1-0.1,0.2-0.1,0.3-0.1c0.1,0,0.2,0,0.3,0.1l2.5,2.5
		c0.2,0.2,0.2,0.4,0,0.6l-0.3,0.3L8.8,23L9.1,22.7z M22.5,6.4c-2.7,1.6-5.1,4.6-6.6,8.5l-3.6-0.7C14.4,10.1,18.2,7.3,22.5,6.4z
		 M40.3,19.4l-3.7-0.7c0-4.3-1.3-8-3.3-10.4C37.1,10.6,39.7,14.7,40.3,19.4z M33.5,10.5c1.2,2.2,1.9,5,2,8l-0.2,0l-4.6-0.8
		c1-5.8,0.2-9-0.7-10.6C31.4,7.7,32.5,8.9,33.5,10.5z M29.6,17.4l-1.9-0.3L27.2,17l-0.5-0.1l-0.8-0.1l-0.5-0.1l-0.5-0.1l-1.6-0.3
		c0,0,0,0,0,0v0c0.9-4.6,2.3-7,3.3-8.3c0.8-1,1.5-1.4,1.8-1.5c0.3,0.3,0.8,0.9,1.2,2.1C30,10,30.4,12.8,29.6,17.4
		C29.6,17.4,29.6,17.4,29.6,17.4z M26.7,6.2c-1.4,1.2-3.4,3.9-4.6,9.8v0l-5.2-1l0,0c1.1-2.8,2.8-5.2,4.7-6.8C23.3,7,25,6.3,26.7,6.2
		z M26.4,18L24.2,30h-0.8l2.3-12.2L26.4,18z"/>
</g>
<g id="venture_capital" class="st0">
	<g id="XMLID_7073_" class="st1">
		<g id="XMLID_7223_">
			<g id="XMLID_7224_">
				<path id="XMLID_60_" class="st5" d="M29.4,40.4c-0.2,0-0.4-0.2-0.4-0.4c0-2.2-1.8-3.9-4.1-3.9s-4.1,1.8-4.1,3.9
					c0,0.2-0.2,0.4-0.4,0.4S20,40.2,20,40c0-2.6,2.2-4.8,4.9-4.8c2.7,0,4.9,2.2,4.9,4.8C29.8,40.2,29.6,40.4,29.4,40.4z"/>
			</g>
		</g>
		<g id="XMLID_7212_">
			<g id="XMLID_7213_">
				<path id="XMLID_57_" class="st5" d="M24.9,34.9c-1.9,0-3.5-1.5-3.5-3.4c0-1.9,1.6-3.4,3.5-3.4s3.5,1.5,3.5,3.4
					C28.4,33.4,26.8,34.9,24.9,34.9z M24.9,29c-1.4,0-2.6,1.1-2.6,2.5c0,1.4,1.2,2.5,2.6,2.5c1.4,0,2.6-1.1,2.6-2.5
					C27.5,30.1,26.3,29,24.9,29z"/>
			</g>
		</g>
		<g id="XMLID_7200_">
			<g id="XMLID_7201_">
				<path id="XMLID_56_" class="st5" d="M40.1,40.4c-0.2,0-0.4-0.2-0.4-0.4c0-2.2-1.8-3.9-4.1-3.9c-2.2,0-4.1,1.8-4.1,3.9
					c0,0.2-0.2,0.4-0.4,0.4c-0.2,0-0.4-0.2-0.4-0.4c0-2.6,2.2-4.8,4.9-4.8c2.7,0,4.9,2.2,4.9,4.8C40.5,40.2,40.3,40.4,40.1,40.4z"/>
			</g>
		</g>
		<g id="XMLID_7189_">
			<g id="XMLID_7190_">
				<path id="XMLID_53_" class="st5" d="M35.6,34.9c-1.9,0-3.5-1.5-3.5-3.4c0-1.9,1.6-3.4,3.5-3.4c1.9,0,3.5,1.5,3.5,3.4
					C39.1,33.4,37.5,34.9,35.6,34.9z M35.6,29c-1.4,0-2.6,1.1-2.6,2.5c0,1.4,1.2,2.5,2.6,2.5c1.4,0,2.6-1.1,2.6-2.5
					C38.2,30.1,37,29,35.6,29z"/>
			</g>
		</g>
		<g id="XMLID_7177_">
			<g id="XMLID_7178_">
				<path id="XMLID_52_" class="st5" d="M18.7,40.4c-0.2,0-0.4-0.2-0.4-0.4c0-2.2-1.8-3.9-4.1-3.9c-2.2,0-4.1,1.8-4.1,3.9
					c0,0.2-0.2,0.4-0.4,0.4c-0.2,0-0.4-0.2-0.4-0.4c0-2.6,2.2-4.8,4.9-4.8c2.7,0,4.9,2.2,4.9,4.8C19.1,40.2,19,40.4,18.7,40.4z"/>
			</g>
		</g>
		<g id="XMLID_7166_">
			<g id="XMLID_7167_">
				<path id="XMLID_49_" class="st5" d="M14.2,34.9c-1.9,0-3.5-1.5-3.5-3.4c0-1.9,1.6-3.4,3.5-3.4c1.9,0,3.5,1.5,3.5,3.4
					C17.7,33.4,16.1,34.9,14.2,34.9z M14.2,29c-1.4,0-2.6,1.1-2.6,2.5c0,1.4,1.2,2.5,2.6,2.5c1.4,0,2.6-1.1,2.6-2.5
					C16.8,30.1,15.6,29,14.2,29z"/>
			</g>
		</g>
		<g id="XMLID_7155_">
			<path id="XMLID_46_" class="st5" d="M33.4,25.6L33.4,25.6c-0.2,0-0.3-0.1-0.4-0.2l-0.9-1.6h-5.9l-0.9,1.6
				c-0.1,0.1-0.2,0.2-0.4,0.2l0,0c-0.2,0-0.3-0.1-0.4-0.2l-0.9-1.6h-6.5l-0.9,1.6c-0.1,0.1-0.2,0.2-0.4,0.2c-0.2,0-0.3-0.1-0.4-0.2
				l-0.9-1.6c-4-0.1-7.3-3.4-7.3-7.3v-2.5c0-4,3.4-7.3,7.6-7.3h19.7c4.2,0,7.6,3.3,7.6,7.3v2.5c0,4-3.2,7.2-7.3,7.3l-0.9,1.6
				C33.7,25.5,33.6,25.6,33.4,25.6z M16.8,22.9h7.1c0.2,0,0.3,0.1,0.4,0.2l0.7,1.1l0.7-1.1c0.1-0.1,0.2-0.2,0.4-0.2h6.4
				c0.2,0,0.3,0.1,0.4,0.2l0.7,1.1l0.7-1.1c0.1-0.1,0.2-0.2,0.4-0.2c3.7,0,6.7-2.9,6.7-6.5v-2.5c0-3.6-3-6.5-6.7-6.5H14.7
				c-3.7,0-6.7,2.9-6.7,6.5v2.5c0,3.6,3,6.5,6.7,6.5c0.2,0,0.3,0.1,0.4,0.2l0.7,1.1l0.7-1.1C16.5,23,16.6,22.9,16.8,22.9z"/>
		</g>
	</g>
	<text transform="matrix(0.8964 0 0 1 11.3564 17.5742)" class="st6 st7 st8">INVEST</text>
</g>
<g id="sea_view" class="st0">
	<g class="st1">
		<g>
			<path class="st9" d="M26,16.3c-0.1,0-0.3,0-0.4,0.1c-0.1,0.1-0.2,0.2-0.2,0.3c0,0.3,0.1,0.5,0.4,0.6c1.9,0.3,3.5,1.5,4.4,3.2
				c0.1,0.2,0.3,0.3,0.4,0.3c0.1,0,0.1,0,0.2,0c0.2-0.1,0.3-0.4,0.2-0.7C30.2,18,28.3,16.6,26,16.3z"/>
			<path class="st9" d="M28.6,14.4c-3-1.1-6.2-0.8-8.8,1c-2.5,1.7-4,4.6-4,7.6c0,1,0.1,1.9,0.4,2.8l0,0L17,25l0,0l0,0
				c-0.4-1.8-0.3-3.7,0.5-5.5c0.9-2,2.5-3.5,4.5-4.2c2.7-1,5.5-0.6,7.7,1c2.2,1.5,3.5,4.1,3.5,6.8c0,0.7-0.1,1.3-0.2,2l0,0l0.8,0.9
				l0,0c0.6-2,0.6-4.1-0.1-6.1C32.8,17.2,31,15.3,28.6,14.4z"/>
			<g>
				<path class="st9" d="M14.9,22.5C14.9,22.5,14.9,22.5,14.9,22.5l-3.1,0c-0.3,0-0.5,0.2-0.5,0.5c0,0.3,0.2,0.5,0.5,0.5h3.1
					c0,0,0,0,0,0c0-0.2,0-0.3,0-0.5C14.9,22.8,14.9,22.7,14.9,22.5z"/>
				<path class="st9" d="M38.2,22.5h-3.1c0,0,0,0,0,0c0,0.3,0,0.6,0,1c0,0,0,0,0,0h3.1c0.3,0,0.5-0.2,0.5-0.5
					C38.7,22.7,38.5,22.5,38.2,22.5z"/>
				<path class="st9" d="M25.5,12.9v-3c0-0.3-0.2-0.5-0.5-0.5c-0.3,0-0.5,0.2-0.5,0.5v3C24.9,12.8,25.2,12.9,25.5,12.9z"/>
				<path class="st9" d="M32,11.8c0.1-0.1,0.1-0.2,0-0.4c0-0.1-0.1-0.2-0.2-0.3c-0.1,0-0.2-0.1-0.2-0.1c-0.2,0-0.3,0.1-0.4,0.2
					l-1.5,2.6c0.3,0.1,0.6,0.3,0.8,0.5L32,11.8z"/>
				<path class="st9" d="M36.7,16.8c0.1-0.1,0.2-0.2,0.2-0.3c0-0.1,0-0.3,0-0.4c-0.1-0.1-0.2-0.2-0.3-0.2c-0.1,0-0.3,0-0.4,0
					l-2.6,1.5c0.2,0.3,0.3,0.6,0.5,0.8L36.7,16.8z"/>
				<path class="st9" d="M18.9,11.4c-0.1-0.1-0.2-0.2-0.3-0.2c-0.1,0-0.3,0-0.4,0c-0.1,0.1-0.2,0.2-0.2,0.3c0,0.1,0,0.3,0,0.4
					l1.5,2.6c0.3-0.2,0.5-0.3,0.8-0.5L18.9,11.4z"/>
				<path class="st9" d="M13.9,16c-0.1-0.1-0.2-0.1-0.4,0c-0.1,0-0.2,0.1-0.3,0.2c-0.1,0.1-0.1,0.2,0,0.4c0,0.1,0.1,0.2,0.2,0.3
					l2.6,1.5c0.1-0.3,0.3-0.6,0.5-0.8L13.9,16z"/>
			</g>
		</g>
		<g>
			<path class="st9" d="M43.6,25.3c-0.1-0.1-0.3-0.2-0.5-0.2s-0.4,0.1-0.5,0.2l-2.5,2.3l-2.5-2.3c-0.1-0.1-0.3-0.2-0.5-0.2
				c-0.2,0-0.4,0.1-0.5,0.2l-2.5,2.3l-2.5-2.3c-0.1-0.1-0.3-0.2-0.5-0.2c-0.2,0-0.4,0.1-0.5,0.2l-2.5,2.3l-2.5-2.3
				c-0.1-0.1-0.3-0.2-0.5-0.2c0,0,0,0,0,0c-0.2,0-0.4,0.1-0.5,0.2L22,27.6l-2.5-2.3c-0.1-0.1-0.3-0.2-0.5-0.2
				c-0.2,0-0.4,0.1-0.5,0.2L16,27.6l-2.5-2.3c-0.1-0.1-0.3-0.2-0.5-0.2s-0.4,0.1-0.5,0.2L10,27.6l-2.5-2.3c-0.1-0.1-0.3-0.2-0.5-0.2
				c-0.2,0-0.4,0.1-0.5,0.2L4.6,27c-0.2,0.1-0.2,0.4-0.1,0.6c0.2,0.3,0.5,0.4,0.8,0.1L7,26.2l2.5,2.3c0.1,0.1,0.3,0.2,0.5,0.2
				c0,0,0,0,0,0c0.2,0,0.4-0.1,0.5-0.2l2.5-2.3l2.5,2.3c0.1,0.1,0.3,0.2,0.5,0.2c0.2,0,0.4-0.1,0.5-0.2l2.5-2.3l2.5,2.3
				c0.1,0.1,0.3,0.2,0.5,0.2h0c0.2,0,0.4-0.1,0.5-0.2l2.5-2.3l2.5,2.3c0.1,0.1,0.3,0.2,0.5,0.2c0,0,0,0,0,0c0.2,0,0.4-0.1,0.5-0.2
				l2.5-2.3l2.5,2.3c0.1,0.1,0.3,0.2,0.5,0.2c0,0,0,0,0,0c0.2,0,0.4-0.1,0.5-0.2l2.5-2.3l2.5,2.3c0.1,0.1,0.3,0.2,0.5,0.2
				c0.2,0,0.4-0.1,0.5-0.2l2.5-2.3l1.7,1.6c0.3,0.3,0.8,0.1,0.8-0.4c0,0,0,0,0,0c0-0.1-0.1-0.3-0.2-0.4L43.6,25.3z"/>
			<path class="st9" d="M43.6,28.9c-0.1-0.1-0.3-0.2-0.5-0.2s-0.4,0.1-0.5,0.2l-2.5,2.3l-2.5-2.3c-0.1-0.1-0.3-0.2-0.5-0.2
				c-0.2,0-0.4,0.1-0.5,0.2l-2.5,2.3l-2.5-2.3c-0.1-0.1-0.3-0.2-0.5-0.2c-0.2,0-0.4,0.1-0.5,0.2l-2.5,2.3l-2.5-2.3
				c-0.1-0.1-0.3-0.2-0.5-0.2c0,0,0,0,0,0c-0.2,0-0.4,0.1-0.5,0.2L22,31.2l-2.5-2.3c-0.1-0.1-0.3-0.2-0.5-0.2
				c-0.2,0-0.4,0.1-0.5,0.2L16,31.2l-2.5-2.3c-0.1-0.1-0.3-0.2-0.5-0.2c0,0,0,0,0,0c-0.2,0-0.4,0.1-0.5,0.2L10,31.2l-2.5-2.3
				c-0.1-0.1-0.3-0.2-0.5-0.2c0,0,0,0,0,0c-0.2,0-0.4,0.1-0.5,0.2l-1.8,1.7c-0.2,0.1-0.2,0.4-0.1,0.6c0.2,0.3,0.5,0.4,0.8,0.1
				L7,29.7L9.5,32c0.1,0.1,0.3,0.2,0.5,0.2c0.2,0,0.4-0.1,0.5-0.2l2.5-2.3l2.5,2.3c0.1,0.1,0.3,0.2,0.5,0.2c0.2,0,0.4-0.1,0.5-0.2
				l2.5-2.3l2.5,2.3c0.1,0.1,0.3,0.2,0.5,0.2h0c0.2,0,0.4-0.1,0.5-0.2l2.5-2.3l2.5,2.3c0.1,0.1,0.3,0.2,0.5,0.2
				c0.2,0,0.4-0.1,0.5-0.2l2.5-2.3l2.5,2.3c0.1,0.1,0.3,0.2,0.5,0.2c0.2,0,0.4-0.1,0.5-0.2l2.5-2.3l2.5,2.3c0.1,0.1,0.3,0.2,0.5,0.2
				c0.2,0,0.4-0.1,0.5-0.2l2.5-2.3l1.7,1.5c0.3,0.3,0.8,0.1,0.8-0.4l0,0c0-0.1-0.1-0.3-0.2-0.4L43.6,28.9z"/>
			<path class="st9" d="M43.6,32.4c-0.1-0.1-0.3-0.2-0.5-0.2s-0.4,0.1-0.5,0.2l-2.5,2.3l-2.5-2.3c-0.1-0.1-0.3-0.2-0.5-0.2
				c-0.2,0-0.4,0.1-0.5,0.2l-2.5,2.3l-2.5-2.3c-0.1-0.1-0.3-0.2-0.5-0.2c-0.2,0-0.4,0.1-0.5,0.2l-2.5,2.3l-2.5-2.3
				c-0.1-0.1-0.3-0.2-0.5-0.2c0,0,0,0,0,0c-0.2,0-0.4,0.1-0.5,0.2L22,34.7l-2.5-2.3c-0.1-0.1-0.3-0.2-0.5-0.2
				c-0.2,0-0.4,0.1-0.5,0.2L16,34.7l-2.5-2.3c-0.1-0.1-0.3-0.2-0.5-0.2c0,0,0,0,0,0c-0.2,0-0.4,0.1-0.5,0.2L10,34.7l-2.5-2.3
				c-0.1-0.1-0.3-0.2-0.5-0.2c0,0,0,0,0,0c-0.2,0-0.4,0.1-0.5,0.2l-1.8,1.7c-0.2,0.1-0.2,0.4-0.1,0.6C4.7,35,5.1,35,5.3,34.8L7,33.3
				l2.5,2.3c0.1,0.1,0.3,0.2,0.5,0.2c0.2,0,0.4-0.1,0.5-0.2l2.5-2.3l2.5,2.3c0.1,0.1,0.3,0.2,0.5,0.2c0.2,0,0.4-0.1,0.5-0.2l2.5-2.3
				l2.5,2.3c0.1,0.1,0.3,0.2,0.5,0.2h0c0.2,0,0.4-0.1,0.5-0.2l2.5-2.3l2.5,2.3c0.1,0.1,0.3,0.2,0.5,0.2c0.2,0,0.4-0.1,0.5-0.2
				l2.5-2.3l2.5,2.3c0.1,0.1,0.3,0.2,0.5,0.2c0.2,0,0.4-0.1,0.5-0.2l2.5-2.3l2.5,2.3c0.1,0.1,0.3,0.2,0.5,0.2c0.2,0,0.4-0.1,0.5-0.2
				l2.5-2.3l1.7,1.6c0.3,0.3,0.8,0.1,0.8-0.4c0,0,0,0,0,0c0-0.1-0.1-0.3-0.2-0.4L43.6,32.4z"/>
		</g>
	</g>
</g>
</svg>
